{"_id":{"$oid":"5d01c5022d0990178020e643"},"Token":"7Wehf6QBv6VFZv0XcdahjfgVJyobqNmkVQDBjC2b","RobloxId":"20419725"}
{"_id":{"$oid":"5d01c6dbe8552d071c562d19"},"Token":"vcyV3PD6QlT0qnukG8mE6dEjSDuJTNivGBzoix3M","RobloxId":"20419725"}
{"_id":{"$oid":"5d01c6e0e8552d071c562d1b"},"Token":"dJjNBhAb7okK8IyJ7n5hnDv6dJ3hNKAZaxIOvM1t","RobloxId":"23440401"}
{"_id":{"$oid":"5d01c7a4174fcd2b6c8d5fa3"},"Token":"dbx07LOr6YR803xOkkAHnRFO0baKE7jdTk8fWUZI","RobloxId":"20419725"}
{"_id":{"$oid":"5d01c7d7174fcd2b6c8d5fa6"},"Token":"pnNQPAhyll3Wqv2BbvGeVfjO3YNNX6omggZBhNdS","RobloxId":"20419725"}
{"_id":{"$oid":"5d01ccc82cb32822f4a2e227"},"Token":"IGYrXdE4Jaa2HDzFmkK0SF0OYy9pJVTrGE8IBcuL","RobloxId":"20419725"}
